Project 2: Modeling, Testing, and Predicting
…
##   (Intercept)     age_c       chol  age_c:chol
## 1    4.480547 0.4900564 0.01815572 0.002005603

bootse<-function(x,n=5000){
  means<-vector()
  for(i in 1:n){
    means[i]<- mean(sample(x,replace=T))
  }
  return(sd(means))
}

mean_se<-cardio%>%group_by(bp)%>%summarize(mean=mean(chol),se=bootse(chol))
mean_se %>% round(3)

## # A tibble: 49 x 3
##       bp  mean    se
##    <dbl> <dbl> <dbl>
##  1    94  213   9.95
##  2   100  251. 14.6 
##  3   101  197   4.05
##  4   102  292. 18.8 
##  5   104  208   4.13
##  6   105  214  10.7 
##  7   106  223   4.35
##  8   108  244. 21.4 
##  9   110  228.  9.37
## 10   112  221. 14.7 
## # … with 39 more rows
…
